Time 5:18:2 - Object tracking at angle 95 distance 5.73
Time 5:18:2 - Object detected at angle 17
Time 5:18:2 - Object detected at angle 22
Time 5:18:2 - Object detected at angle 28
Time 5:18:2 - Object detected at angle 34
Time 5:18:2 - Object detected at angle 40
Time 5:18:3 - Object detected at angle 51
TOT OBSTACLE = 7
TOT OBSTACLE = 0
TOT OBSTACLE = 0
Time 5:18:12 - Object tracking at angle 116 distance 5.03
TOT OBSTACLE = 1
Time 5:18:17 - Object tracking at angle 74 distance 2.49
Time 5:18:18 - Object tracking at angle 120 distance 11.37
TOT OBSTACLE = 2
TOT OBSTACLE = 0
Time 5:18:25 - Object detected at angle 33
Time 5:18:28 - Object detected at angle 101
Time 5:18:29 - Object detected at angle 109
TOT OBSTACLE = 3
Time 5:18:32 - Object detected at angle 99
Time 5:18:33 - Object detected at angle 42
Time 5:18:33 - Object detected at angle 19
Time 5:18:34 - Object detected at angle 0
TOT OBSTACLE = 4
Time 5:18:35 - Object detected at angle 68
Time 5:18:36 - Object detected at angle 108
TOT OBSTACLE = 2
TOT OBSTACLE = 0
Time 5:18:41 - Object detected at angle 63
Time 5:18:42 - Object detected at angle 91
Time 5:18:43 - Object detected at angle 154
Time 5:18:43 - Object detected at angle 160
Time 5:18:43 - Object detected at angle 166
Time 5:18:43 - Object detected at angle 171
TOT OBSTACLE = 6
Time 5:18:44 - Object detected at angle 168
Time 5:18:44 - Object detected at angle 162
Time 5:18:44 - Object detected at angle 157
Time 5:18:44 - Object detected at angle 151
Time 5:18:44 - Object detected at angle 145
Time 5:18:44 - Object detected at angle 139
Time 5:18:44 - Object detected at angle 134
Time 5:18:44 - Object detected at angle 128
Time 5:18:44 - Object detected at angle 122
Time 5:18:45 - Object detected at angle 111
Time 5:18:45 - Object detected at angle 105
Time 5:18:45 - Object detected at angle 99
Time 5:18:45 - Object detected at angle 94
Time 5:18:45 - Object detected at angle 88
Time 5:18:45 - Object detected at angle 82
Time 5:18:45 - Object detected at angle 76
Time 5:18:45 - Object detected at angle 71
Time 5:18:45 - Object detected at angle 65
Time 5:18:45 - Object detected at angle 59
Time 5:18:46 - Object detected at angle 53
Time 5:18:46 - Object detected at angle 48
Time 5:18:46 - Object detected at angle 42
Time 5:18:46 - Object detected at angle 36
Time 5:18:46 - Object detected at angle 30
Time 5:18:46 - Object detected at angle 25
Time 5:18:46 - Object detected at angle 19
Time 5:18:46 - Object detected at angle 13
Time 5:18:46 - Object detected at angle 8
Time 5:18:46 - Object detected at angle 2
Time 5:18:47 - Object detected at angle 0
TOT OBSTACLE = 30
Time 5:18:47 - Object detected at angle 22
Time 5:18:47 - Object detected at angle 28
Time 5:18:47 - Object detected at angle 34
Time 5:18:47 - Object detected at angle 40
Time 5:18:47 - Object detected at angle 45
Time 5:18:47 - Object detected at angle 51
Time 5:18:48 - Object detected at angle 57
Time 5:18:48 - Object detected at angle 63
Time 5:18:48 - Object detected at angle 68
Time 5:18:48 - Object detected at angle 74
Time 5:18:48 - Object detected at angle 85
Time 5:18:48 - Object detected at angle 97
Time 5:18:48 - Object detected at angle 103
Time 5:18:48 - Object detected at angle 108
Time 5:18:49 - Object detected at angle 114
Time 5:18:49 - Object detected at angle 120
Time 5:18:49 - Object detected at angle 126
Time 5:18:49 - Object detected at angle 131
Time 5:18:49 - Object detected at angle 137
Time 5:18:49 - Object detected at angle 143
Time 5:18:49 - Object detected at angle 149
Time 5:18:49 - Object detected at angle 154
Time 5:18:49 - Object detected at angle 166
Time 5:18:50 - Object detected at angle 171
Time 5:18:50 - Object detected at angle 177
Time 5:18:50 - Object detected at angle 180
TOT OBSTACLE = 26
Time 5:18:50 - Object detected at angle 174
Time 5:18:50 - Object detected at angle 168
Time 5:18:50 - Object detected at angle 162
Time 5:18:50 - Object detected at angle 157
Time 5:18:50 - Object detected at angle 151
Time 5:18:50 - Object detected at angle 145
Time 5:18:50 - Object detected at angle 139
Time 5:18:51 - Object detected at angle 134
Time 5:18:51 - Object detected at angle 122
Time 5:18:51 - Object detected at angle 116
Time 5:18:51 - Object detected at angle 111
Time 5:18:51 - Object detected at angle 105
Time 5:18:51 - Object detected at angle 99
Time 5:18:51 - Object detected at angle 94
Time 5:18:51 - Object detected at angle 88
Time 5:18:51 - Object detected at angle 82
Time 5:18:52 - Object detected at angle 76
Time 5:18:52 - Object detected at angle 71
Time 5:18:52 - Object detected at angle 65
Time 5:18:52 - Object detected at angle 59
Time 5:18:52 - Object detected at angle 53
Time 5:18:52 - Object detected at angle 48
Time 5:18:52 - Object detected at angle 42
Time 5:18:52 - Object detected at angle 36
Time 5:18:52 - Object detected at angle 30
Time 5:18:52 - Object detected at angle 25
Time 5:18:53 - Object detected at angle 19
Time 5:18:53 - Object detected at angle 13
Time 5:18:53 - Object detected at angle 8
Time 5:18:53 - Object detected at angle 2
Time 5:18:53 - Object detected at angle 0
TOT OBSTACLE = 31
Time 5:18:53 - Object detected at angle 17
Time 5:18:53 - Object detected at angle 22
Time 5:18:53 - Object detected at angle 28
Time 5:18:54 - Object detected at angle 34
Time 5:18:54 - Object detected at angle 40
Time 5:18:54 - Object detected at angle 45
Time 5:18:54 - Object detected at angle 51
Time 5:18:54 - Object detected at angle 57
Time 5:18:54 - Object detected at angle 63
Time 5:18:54 - Object detected at angle 68
Time 5:18:54 - Object detected at angle 74
Time 5:18:54 - Object detected at angle 80
Time 5:18:54 - Object detected at angle 85
Time 5:18:55 - Object detected at angle 91
Time 5:18:55 - Object detected at angle 97
Time 5:18:55 - Object detected at angle 103
Time 5:18:55 - Object detected at angle 108
Time 5:18:55 - Object detected at angle 114
Time 5:18:55 - Object detected at angle 120
Time 5:18:55 - Object detected at angle 126
Time 5:18:55 - Object detected at angle 131
Time 5:18:55 - Object detected at angle 137
Time 5:18:55 - Object detected at angle 143
Time 5:18:56 - Object detected at angle 149
Time 5:18:56 - Object detected at angle 154
Time 5:18:56 - Object detected at angle 160
Time 5:18:56 - Object detected at angle 166
Time 5:18:56 - Object detected at angle 171
Time 5:18:56 - Object detected at angle 177
Time 5:18:56 - Object detected at angle 180
TOT OBSTACLE = 30
Time 5:18:56 - Object detected at angle 174
Time 5:18:56 - Object detected at angle 168
Time 5:18:56 - Object detected at angle 162
Time 5:18:57 - Object detected at angle 157
Time 5:18:57 - Object detected at angle 151
Time 5:18:57 - Object detected at angle 145
Time 5:18:57 - Object detected at angle 139
Time 5:18:57 - Object detected at angle 134
Time 5:18:57 - Object detected at angle 128
Time 5:18:57 - Object detected at angle 122
Time 5:18:57 - Object detected at angle 116
Time 5:18:57 - Object detected at angle 111
Time 5:18:57 - Object detected at angle 105
Time 5:18:58 - Object detected at angle 99
Time 5:18:58 - Object detected at angle 94
Time 5:18:58 - Object detected at angle 88
Time 5:18:58 - Object detected at angle 82
Time 5:18:58 - Object detected at angle 76
Time 5:18:58 - Object detected at angle 71
Time 5:18:58 - Object detected at angle 65
Time 5:18:58 - Object detected at angle 59
Time 5:18:58 - Object detected at angle 53
Time 5:18:58 - Object detected at angle 48
Time 5:18:59 - Object detected at angle 42
Time 5:18:59 - Object detected at angle 36
Time 5:18:59 - Object detected at angle 30
Time 5:18:59 - Object detected at angle 25
Time 5:18:59 - Object detected at angle 19
Time 5:18:59 - Object detected at angle 13
TOT OBSTACLE = 29
Time 5:19:0 - Object detected at angle 28
Time 5:19:0 - Object detected at angle 34
Time 5:19:0 - Object detected at angle 40
Time 5:19:0 - Object detected at angle 45
Time 5:19:0 - Object detected at angle 51
Time 5:19:0 - Object detected at angle 57
Time 5:19:1 - Object detected at angle 68
Time 5:19:1 - Object detected at angle 74
Time 5:19:1 - Object detected at angle 80
Time 5:19:1 - Object detected at angle 85
Time 5:19:1 - Object detected at angle 91
Time 5:19:1 - Object detected at angle 97
Time 5:19:1 - Object detected at angle 103
Time 5:19:1 - Object detected at angle 114
Time 5:19:1 - Object detected at angle 120
Time 5:19:2 - Object tracking at angle 126 distance 12.52
Time 5:19:3 - Object detected at angle 137
Time 5:19:3 - Object detected at angle 143
Time 5:19:3 - Object detected at angle 149
Time 5:19:3 - Object detected at angle 154
Time 5:19:3 - Object detected at angle 160
Time 5:19:3 - Object detected at angle 166
Time 5:19:4 - Object detected at angle 171
Time 5:19:4 - Object detected at angle 177
Time 5:19:4 - Object detected at angle 180
TOT OBSTACLE = 25
Time 5:19:4 - Object detected at angle 174
Time 5:19:4 - Object detected at angle 168
Time 5:19:4 - Object detected at angle 162
Time 5:19:4 - Object detected at angle 157
Time 5:19:4 - Object detected at angle 151
Time 5:19:4 - Object detected at angle 145
Time 5:19:4 - Object detected at angle 139
Time 5:19:5 - Object detected at angle 134
Time 5:19:5 - Object detected at angle 128
Time 5:19:5 - Object detected at angle 88
Time 5:19:6 - Object detected at angle 76
TOT OBSTACLE = 11
Time 5:19:10 - Object detected at angle 171
Time 5:19:10 - Object detected at angle 177
Time 5:19:10 - Object detected at angle 180
TOT OBSTACLE = 3
Time 5:19:10 - Object detected at angle 174
Time 5:19:10 - Object detected at angle 168
Time 5:19:10 - Object detected at angle 162
Time 5:19:11 - Object detected at angle 157
Time 5:19:11 - Object detected at angle 151
Time 5:19:11 - Object detected at angle 145
Time 5:19:11 - Object detected at angle 139
Time 5:19:11 - Object detected at angle 134
Time 5:19:11 - Object detected at angle 128
Time 5:19:11 - Object detected at angle 122
Time 5:19:11 - Object detected at angle 116
Time 5:19:11 - Object detected at angle 111
Time 5:19:11 - Object detected at angle 105
Time 5:19:12 - Object detected at angle 99
Time 5:19:12 - Object detected at angle 94
Time 5:19:12 - Object detected at angle 88
Time 5:19:12 - Object detected at angle 82
Time 5:19:12 - Object detected at angle 76
Time 5:19:12 - Object detected at angle 71
TOT OBSTACLE = 19
Time 5:19:15 - Object tracking at angle 103 distance 5.96
Time 5:19:17 - Object tracking at angle 149 distance 6.7
TOT OBSTACLE = 2
Time 5:19:18 - Object tracking at angle 174 distance 6.56
TOT OBSTACLE = 1
TOT OBSTACLE = 0
TOT OBSTACLE = 0
TOT OBSTACLE = 0
TOT OBSTACLE = 0
TOT OBSTACLE = 0
TOT OBSTACLE = 0
TOT OBSTACLE = 0
TOT OBSTACLE = 0
TOT OBSTACLE = 0
Time 5:19:41 - Object detected at angle 10
TOT OBSTACLE = 1
TOT OBSTACLE = 0
Time 5:19:52 - Object tracking at angle 63 distance 6.56
Time 5:19:53 - Object tracking at angle 6 distance 7.02
Time 5:19:53 - Object tracking at angle 103 distance 8.57
Time 5:19:55 - Object detected at angle 166
Time 5:19:55 - Object detected at angle 171
TOT OBSTACLE = 5
Time 5:19:56 - Object detected at angle 174
Time 5:19:56 - Object detected at angle 139
Time 5:19:57 - Object detected at angle 111
Time 5:19:57 - Object detected at angle 99
Time 5:19:57 - Object detected at angle 94
Time 5:19:57 - Object detected at angle 88
Time 5:19:57 - Object detected at angle 82
Time 5:19:57 - Object detected at angle 76
Time 5:19:57 - Object detected at angle 65
Time 5:19:58 - Object detected at angle 59
Time 5:19:58 - Object detected at angle 53
Time 5:19:58 - Object detected at angle 36
Time 5:19:58 - Object detected at angle 30
Time 5:19:58 - Object detected at angle 19
Time 5:19:58 - Object detected at angle 13
Time 5:19:59 - Object detected at angle 0
TOT OBSTACLE = 16
Time 5:19:59 - Object detected at angle 22
TOT OBSTACLE = 1
